Intro_R_espacial_light: Dia 1
…
En nuestra tabla de localidades, podemos ver que las “variables” de la derecha son nombres de países diferentes. En cada una de estas columnas, 1 representa la presencia de la especie. Esta organización de la tabla significa que no se cumple uno de los principios de la estructura ordenada de datos (“Cada variable tiene su propia columna”). Por lo tanto, necesitamos rorganizar los datos para que sean más compatibles con la mayoría (aunque no todas) de las funciones de R.

tidyrcontiene una serie de funciones que ayudan a crear datos ordenados. Por ejemplo, la función gather toma datos de formato ancho y los convierte a formato largo.

Para utilizar esta función, simplemente necesitamos especificar el nombre de la variable nueva que indica el país (country) y el nombre de las columnas de países.

dat_input <- 
  gather(data = dat_loc, 
         key = country, value = count,  "Bolivia","Brazil", "Colombia","Ecuador",
         "French.Guyana", "Guyana", "Panama", "Peru", "Suriname", "Venezuela", 
         na.rm = TRUE)
dat_input

# A tibble: 18,020 x 11
   ID    class   species  year latit~1 longi~2 basis~3 taxon~4 state~5
   <chr> <chr>   <chr>   <dbl>   <dbl>   <dbl> <chr>     <dbl> <chr>  
 1 CT_1  Mammal~ Cerdoc~  2021    4.38   -75.1 HUMAN_~       6 "Tolim~
 2 CT_2  Mammal~ Cerdoc~  2021    6.83   -73.7 HUMAN_~       6 "Santa~
 3 CT_3  Mammal~ Cerdoc~  2021    6.73   -73.9 HUMAN_~       6 "Santa~
 4 CT_4  Mammal~ Cerdoc~  2021    4.72   -74.0 HUMAN_~       6 "Cundi~
 5 CT_5  Mammal~ Cerdoc~  2021    9.87   -75.2 HUMAN_~       6 "Bol\x~
 6 CT_6  Mammal~ Cerdoc~  2021    3.74  -177.  HUMAN_~       6 "Valle~
 7 CT_7  Mammal~ Cerdoc~  2021    3.75   -76.7 HUMAN_~       6 "Valle~
 8 CT_8  Mammal~ Cerdoc~  2021    3.75   -76.7 HUMAN_~       6 "Valle~
 9 CT_9  Mammal~ Cerdoc~  2021    3.74   -76.7 HUMAN_~       6 "Valle~
10 CT_10 Mammal~ Cerdoc~  2021    3.75   -76.7 HUMAN_~       6 "Valle~
# ... with 18,010 more rows, 2 more variables: country <chr>,
#   count <dbl>, and abbreviated variable names 1: latitude,
#   2: longitude, 3: basisOfRecord, 4: taxonKey, 5: stateProvince
# i Use `print(n = ...)` to see more rows, and `colnames()` to see all variable names
…
Para hacer esto, vamos a agrupar los datos con la función group_by seguida de summarize para obtener las estadísticas en cada departamento.

datg <- group_by(dat_mamm, NAME_1)

group_by() toma una tabla existente y la convierte en una tabla agrupada donde las operaciones se realizan “por grupo”. Revise el objeto datg y verá que los datos en sí mismos no han cambiado. Sin embargo, si escribe datg en la consola, imprimirá, Groups: NAME_1 [31], lo que indica que los datos están agrupados en 31 departamentos.

Ahora podemos utilizar esa tabla para resumir los datos con las estadísticas deseadas

(dat_elev_sum <- 
    summarize(datg,
              mean_elev = mean(elevation),
              sd_elev = sd(elevation),
              n = n()))

# A tibble: 31 x 4
   NAME_1    mean_elev sd_elev     n
   <chr>         <dbl>   <dbl> <int>
 1 Amazonas      104.     35.4    68
 2 Antioquia     990.    807.    151
 3 Arauca        290.    299.     67
 4 Atlantico      78.2    71.7    44
 5 Bolivar       438.    410.     99
 6 Boyaca       1742    1068.     92
 7 Caldas       1435.    938.    159
 8 Caqueta       427.    343.    119
 9 Casanare      475.    507.    126
10 Cauca        1421.    711.    118
# ... with 21 more rows
# i Use `print(n = ...)` to see more rows
…
